FIP606 - Outros gráficos
…
      "Cape Verde",        1,
           "China",        1,
           "Egypt",        1,
         "Finland",        1,
           "India",        1,
           "Italy",        1,
        "Malaysia",        1,
        "Pakistan",        1,
          "Poland",        1,
       "Singapore",        1,
     "Timor-Leste",        1,
         "Uruguay",        1
  )

# A tibble: 32 × 2
   Paises        Visitas
   <chr>           <dbl>
 1 Brazil           4303
 2 Mozambique         43
 3 Portugal           33
 4 United States      23
 5 Angola             19
 6 Spain              16
 7 (not set)          12
 8 Colombia            8
 9 Germany             5
10 Hungary             5
# ℹ 22 more rows
…
